Corruption and human development
…
library(tidyverse)
library(cowplot)    # for theme_minimal_hgrid()
library(colorspace) # for darken()
library(ggrepel)    # for geom_text_repel()

The dataset is provided as practicalgg::corruption. Lets look at it in table form and in basic scatterplot form.

corrupt <- practicalgg::corruption %>% 
  filter(year == 2015) %>% 
  na.omit()

corrupt

## # A tibble: 147 x 5
##    country     region                   year   cpi   hdi
##    <chr>       <chr>                   <dbl> <dbl> <dbl>
##  1 Denmark     Europe and Central Asia  2015    91 0.925
##  2 New Zealand Asia Pacific             2015    91 0.915
##  3 Finland     Europe and Central Asia  2015    90 0.895
##  4 Sweden      Europe and Central Asia  2015    89 0.913
##  5 Switzerland Europe and Central Asia  2015    86 0.939
##  6 Norway      Europe and Central Asia  2015    88 0.949
##  7 Singapore   Asia Pacific             2015    85 0.925
##  8 Netherlands Europe and Central Asia  2015    84 0.924
##  9 Canada      Americas                 2015    83 0.92 
## 10 Germany     Europe and Central Asia  2015    81 0.926
## #  with 137 more rows
…
